<?xml version="1.0" encoding="utf-8"?>
<!-- Generator: Adobe Illustrator 15.0.2, SVG Export Plug-In . SVG Version: 6.00 Build 0)  -->
<!DOCTYPE svg PUBLIC "-//W3C//DTD SVG 1.1//EN" "http://www.w3.org/Graphics/SVG/1.1/DTD/svg11.dtd">
<svg version="1.1" id="Слой_1" xmlns="http://www.w3.org/2000/svg" xmlns:xlink="http://www.w3.org/1999/xlink" x="0px" y="0px"
	 width="163.875px" height="119.505px" viewBox="0 0 163.875 119.505" enable-background="new 0 0 163.875 119.505"
	 xml:space="preserve">
<path fill-rule="evenodd" clip-rule="evenodd" fill="#F0554C" d="M91.085,4.952c3.3-3.3,7.63-4.95,11.95-4.94
	c4.33-0.01,8.65,1.641,11.949,4.94c3.75,3.75,5.371,8.83,4.851,13.72l0,0c0.36,15.87,8.42,23.98,24.729,24.25v0.01
	c4.761-0.379,9.641,1.24,13.28,4.881c3.101,3.1,4.74,7.09,4.931,11.149c0,0.12,0.01,0.25,0.01,0.38v0.01
	c0.109,4.461-1.53,8.951-4.94,12.351c-3.739,3.74-8.81,5.36-13.689,4.851l0.03,0.06c-15.86,0.36-24.041,8.36-24.311,24.67l0,0
	c0.38,4.76-1.25,9.64-4.891,13.28c-6.59,6.59-17.27,6.59-23.859,0s-6.59-17.271,0-23.86c3.641-3.64,8.52-5.271,13.28-4.89l0,0
	c16.319-0.28,24.37-8.391,24.729-24.25l0,0c-0.029-0.311-0.05-0.62-0.07-0.93l-0.01-0.221l0,0l-0.01-0.22v-0.011v-0.039
	c-0.01-0.58,0-1.16,0.05-1.74l0,0c-0.27-16.32-8.45-24.32-24.31-24.67l0.029-0.07c-0.56,0.061-1.129,0.09-1.689,0.1h-0.04h-0.101
	h-0.039c-0.561-0.01-1.131-0.039-1.69-0.1l0.04,0.07c-15.87,0.35-24.05,8.35-24.32,24.67l0,0c0.381,4.76-1.25,9.64-4.89,13.279
	c-6.59,6.59-17.271,6.59-23.86,0c-6.59-6.59-6.59-17.279,0-23.869c3.64-3.641,8.52-5.26,13.28-4.881v-0.01
	c16.32-0.27,24.38-8.38,24.729-24.25l0,0C85.715,13.782,87.335,8.702,91.085,4.952z"/>
<path fill-rule="evenodd" clip-rule="evenodd" fill="#7EABC2" d="M5.095,47.803c-3.3,3.299-4.939,7.629-4.939,11.959
	c0,4.32,1.64,8.65,4.939,11.95c3.75,3.75,8.83,5.36,13.73,4.841l0,0c15.86,0.359,23.97,8.42,24.25,24.729l0,0
	c-0.38,4.76,1.25,9.649,4.88,13.29c3.1,3.09,7.1,4.73,11.15,4.92c0.129,0.01,0.25,0.01,0.379,0.02h0.011
	c4.46,0.11,8.95-1.539,12.35-4.939c3.74-3.75,5.36-8.811,4.851-13.7l0.06,0.04c0.36-15.859,8.36-24.04,24.67-24.311l0,0
	c4.761,0.371,9.64-1.26,13.28-4.89c6.59-6.59,6.59-17.28,0-23.87s-17.27-6.59-23.86,0c-3.64,3.641-5.27,8.53-4.89,13.291l0,0
	c-0.28,16.31-8.391,24.369-24.25,24.729l0,0c-0.311-0.04-0.62-0.06-0.93-0.07l-0.221-0.01v-0.011h-0.22h-0.01h-0.03
	c-0.59-0.02-1.17,0-1.75,0.051l0,0c-16.31-0.28-24.31-8.46-24.67-24.32l-0.06,0.04c0.06-0.569,0.09-1.13,0.09-1.7v-0.029v-0.11
	v-0.03c0-0.57-0.03-1.13-0.09-1.699l0.06,0.039c0.36-15.859,8.36-24.039,24.67-24.31l0,0c4.76,0.37,9.641-1.26,13.28-4.89
	c6.59-6.59,6.59-17.28,0-23.87c-6.591-6.591-17.28-6.591-23.87,0c-3.63,3.64-5.26,8.53-4.88,13.29l0,0
	c-0.28,16.31-8.39,24.369-24.25,24.729l0,0C13.925,42.442,8.845,44.053,5.095,47.803z"/>
</svg>
